…
Also, what does “late” mean? Arriving or departing?

One last note - many flights arrived late 100% of the time, but most had
only 1 observation per flight, so that info might not be that useful.

``` r
flights %>% 
  group_by(carrier, flight, origin, dest) %>% 
  summarize(n = n(),
            dep_late_prop = mean(dep_delay > 15, na.rm = T),
            arr_late_prop = mean(arr_delay > 15, na.rm = T)) %>%
  arrange(desc(arr_late_prop))
```

    ## # A tibble: 12,075 x 7
    ## # Groups:   carrier, flight, origin [6,872]
    ##    carrier flight origin dest      n dep_late_prop arr_late_prop
    ##    <chr>    <int> <chr>  <chr> <int>         <dbl>         <dbl>
    ##  1 9E        2931 JFK    JAX       1             1             1
    ##  2 9E        3283 LGA    CLT       1             1             1
    ##  3 9E        3284 JFK    ROC       1             1             1
    ##  4 9E        3285 LGA    MSP       1             1             1
    ##  5 9E        3291 JFK    BWI       1             1             1
    ##  6 9E        3291 LGA    CVG       1             1             1
    ##  7 9E        3295 LGA    BNA       1             0             1
    ##  8 9E        3297 LGA    MCI       1             1             1
    ##  9 9E        3305 LGA    BNA       1             1             1
    ## 10 9E        3322 JFK    ORF       1             1             1
    ## # ... with 12,065 more rows
…
Here’s the original code for `not_cancelled`:

``` r
not_cancelled <- flights %>% 
  filter(!is.na(dep_delay), !is.na(arr_delay))
```

Original code:

``` r
not_cancelled %>% 
  count(dest)
```

    ## # A tibble: 104 x 2
    ##    dest      n
    ##    <chr> <int>
    ##  1 ABQ     254
    ##  2 ACK     264
    ##  3 ALB     418
    ##  4 ANC       8
    ##  5 ATL   16837
    ##  6 AUS    2411
    ##  7 AVL     261
    ##  8 BDL     412
    ##  9 BGR     358
    ## 10 BHM     269
    ## # ... with 94 more rows

Look at the help for `?count`: `count()` is a “wrapper” (ie. a
convenient shortcut) for `group_by()` + `summarize()` + `ungroup()`.

My version:

``` r
not_cancelled %>% 
  group_by(dest) %>% 
  summarize(num = n()) %>% 
  ungroup()
```

    ## # A tibble: 104 x 2
    ##    dest    num
    ##    <chr> <int>
    ##  1 ABQ     254
    ##  2 ACK     264
    ##  3 ALB     418
    ##  4 ANC       8
    ##  5 ATL   16837
    ##  6 AUS    2411
    ##  7 AVL     261
    ##  8 BDL     412
    ##  9 BGR     358
    ## 10 BHM     269
    ## # ... with 94 more rows

``` r
# OR

not_cancelled %>% 
  group_by(dest) %>% 
  tally()
```

    ## # A tibble: 104 x 2
    ##    dest      n
    ##    <chr> <int>
    ##  1 ABQ     254
    ##  2 ACK     264
    ##  3 ALB     418
    ##  4 ANC       8
    ##  5 ATL   16837
    ##  6 AUS    2411
    ##  7 AVL     261
    ##  8 BDL     412
    ##  9 BGR     358
    ## 10 BHM     269
    ## # ... with 94 more rows

``` r
# count = group_by + tally + ungroup
```

Original code (note that `wt = distance` gives you the sum of distance -
not counts):

``` r
not_cancelled %>% 
  count(tailnum, wt = distance)
```

    ## # A tibble: 4,037 x 2
    ##    tailnum      n
    ##    <chr>    <dbl>
    ##  1 D942DN    3418
    ##  2 N0EGMQ  239143
    ##  3 N10156  109664
    ##  4 N102UW   25722
    ##  5 N103US   24619
    ##  6 N104UW   24616
    ##  7 N10575  139903
    ##  8 N105UW   23618
    ##  9 N107US   21677
    ## 10 N108UW   32070
    ## # ... with 4,027 more rows
…
