…
> 1.  In this case study I set `values_drop_na = TRUE` just to make it
>     easier to check that we had the correct values. Is this
>     reasonable? Think about how missing values are represented in this
>     dataset. Are there implicit missing values? What’s the difference
>     between an `NA` and zero?

Look for rows with NA cases:

``` r
who_tidy %>% 
  filter(is.na(cases))
```

    ## # A tibble: 329,394 x 6
    ##    country      year diag_method gender age_group cases
    ##    <chr>       <int> <chr>       <chr>  <chr>     <int>
    ##  1 Afghanistan  1980 sp          m      014          NA
    ##  2 Afghanistan  1980 sp          m      1524         NA
    ##  3 Afghanistan  1980 sp          m      2534         NA
    ##  4 Afghanistan  1980 sp          m      3544         NA
    ##  5 Afghanistan  1980 sp          m      4554         NA
    ##  6 Afghanistan  1980 sp          m      5564         NA
    ##  7 Afghanistan  1980 sp          m      65           NA
    ##  8 Afghanistan  1980 sp          f      014          NA
    ##  9 Afghanistan  1980 sp          f      1524         NA
    ## 10 Afghanistan  1980 sp          f      2534         NA
    ## # ... with 329,384 more rows

Look for rows with 0 cases:

``` r
who_tidy %>% 
  filter(cases == 0)
```

    ## # A tibble: 11,080 x 6
    ##    country      year diag_method gender age_group cases
    ##    <chr>       <int> <chr>       <chr>  <chr>     <int>
    ##  1 Afghanistan  1997 sp          m      014           0
    ##  2 Afghanistan  1997 sp          m      65            0
    ##  3 Afghanistan  1997 sp          f      5564          0
    ##  4 Afghanistan  2007 sn          m      014           0
    ##  5 Afghanistan  2007 sn          m      1524          0
    ##  6 Afghanistan  2007 sn          m      2534          0
    ##  7 Afghanistan  2007 sn          m      3544          0
    ##  8 Afghanistan  2007 sn          m      4554          0
    ##  9 Afghanistan  2007 sn          m      5564          0
    ## 10 Afghanistan  2007 sn          m      65            0
    ## # ... with 11,070 more rows
…
Let’s check if there are any of these in the data - start by seeing
whether each country has the same number of observations:

``` r
who_tidy %>% 
  group_by(country) %>% 
  summarize(count = n()) %>% 
  arrange(count)
```

    ## `summarise()` ungrouping output (override with `.groups` argument)

    ## # A tibble: 219 x 2
    ##    country                           count
    ##    <chr>                             <int>
    ##  1 South Sudan                         168
    ##  2 Bonaire, Saint Eustatius and Saba   224
    ##  3 Curacao                             224
    ##  4 Sint Maarten (Dutch part)           224
    ##  5 Montenegro                          504
    ##  6 Serbia                              504
    ##  7 Timor-Leste                         672
    ##  8 Serbia & Montenegro                1400
    ##  9 Netherlands Antilles               1680
    ## 10 Afghanistan                        1904
    ## # ... with 209 more rows

So there are countries with less data than most. Let’s check the year
range for the countries:

``` r
who_tidy %>% 
  group_by(country) %>% 
  summarize(min_year = min(year),
            max_year = max(year)) %>% 
  arrange(desc(min_year))
```

    ## `summarise()` ungrouping output (override with `.groups` argument)

    ## # A tibble: 219 x 3
    ##    country                           min_year max_year
    ##    <chr>                                <int>    <int>
    ##  1 South Sudan                           2011     2013
    ##  2 Bonaire, Saint Eustatius and Saba     2010     2013
    ##  3 Curacao                               2010     2013
    ##  4 Sint Maarten (Dutch part)             2010     2013
    ##  5 Montenegro                            2005     2013
    ##  6 Serbia                                2005     2013
    ##  7 Timor-Leste                           2002     2013
    ##  8 Afghanistan                           1980     2013
    ##  9 Albania                               1980     2013
    ## 10 Algeria                               1980     2013
    ## # ... with 209 more rows
…
    ## Warning: Expected 3 pieces. Missing pieces filled with `NA` in 101360 rows [43,
    ## 44, 45, 46, 47, 48, 49, 50, 51, 52, 53, 54, 55, 56, 99, 100, 101, 102, 103,
    ## 104, ...].

    ## # A tibble: 405,440 x 6
    ##    country      year diag_method gender age_group cases
    ##    <chr>       <int> <chr>       <chr>  <chr>     <int>
    ##  1 Afghanistan  1980 sp          m      014          NA
    ##  2 Afghanistan  1980 sp          m      1524         NA
    ##  3 Afghanistan  1980 sp          m      2534         NA
    ##  4 Afghanistan  1980 sp          m      3544         NA
    ##  5 Afghanistan  1980 sp          m      4554         NA
    ##  6 Afghanistan  1980 sp          m      5564         NA
    ##  7 Afghanistan  1980 sp          m      65           NA
    ##  8 Afghanistan  1980 sp          f      014          NA
    ##  9 Afghanistan  1980 sp          f      1524         NA
    ## 10 Afghanistan  1980 sp          f      2534         NA
    ## # ... with 405,430 more rows
…
