…
  - *categorical* variable = bar chart
  - *continuous* variable = histogram
  - use `binwidth` in `ggplot()` and `cut_width()` in `count()` to bin a
    continuous variable into discrete intervals.

Example:

``` r
# without cut_width - get count for every possible value of carat

diamonds %>% 
  count(carat)
```

    ## # A tibble: 273 x 2
    ##    carat     n
    ##    <dbl> <int>
    ##  1 0.2      12
    ##  2 0.21      9
    ##  3 0.22      5
    ##  4 0.23    293
    ##  5 0.24    254
    ##  6 0.25    212
    ##  7 0.26    253
    ##  8 0.27    233
    ##  9 0.28    198
    ## 10 0.290   130
    ## # ... with 263 more rows
…
