…
## Ch 13:3 Keys

> 1.  Add a surrogate key to `flights`.

``` r
flights %>% 
  mutate(surrogate_key = row_number(), 
         .before = 1)
```

    ## # A tibble: 336,776 x 20
    ##    surrogate_key  year month   day dep_time sched_dep_time dep_delay arr_time
    ##            <int> <int> <int> <int>    <int>          <int>     <dbl>    <int>
    ##  1             1  2013     1     1      517            515         2      830
    ##  2             2  2013     1     1      533            529         4      850
    ##  3             3  2013     1     1      542            540         2      923
    ##  4             4  2013     1     1      544            545        -1     1004
    ##  5             5  2013     1     1      554            600        -6      812
    ##  6             6  2013     1     1      554            558        -4      740
    ##  7             7  2013     1     1      555            600        -5      913
    ##  8             8  2013     1     1      557            600        -3      709
    ##  9             9  2013     1     1      557            600        -3      838
    ## 10            10  2013     1     1      558            600        -2      753
    ## # ... with 336,766 more rows, and 12 more variables: sched_arr_time <int>,
    ## #   arr_delay <dbl>, carrier <chr>, flight <int>, tailnum <chr>, origin <chr>,
    ## #   dest <chr>, air_time <dbl>, distance <dbl>, hour <dbl>, minute <dbl>,
    ## #   time_hour <dttm>
…
    ## [1] 53794

The number of unique rows is 53,794, which is less than the total rows
(53,940), indicating that there are a number of entirely duplicated
rows. This means that there are no unique identifiers, so we would need
to add a surrogate key.

``` r
diamonds %>% 
  mutate(surrogate_key = row_number(),
         .before = 1)
```

    ## # A tibble: 53,940 x 11
    ##    surrogate_key carat cut     color clarity depth table price     x     y     z
    ##            <int> <dbl> <ord>   <ord> <ord>   <dbl> <dbl> <int> <dbl> <dbl> <dbl>
    ##  1             1 0.23  Ideal   E     SI2      61.5    55   326  3.95  3.98  2.43
    ##  2             2 0.21  Premium E     SI1      59.8    61   326  3.89  3.84  2.31
    ##  3             3 0.23  Good    E     VS1      56.9    65   327  4.05  4.07  2.31
    ##  4             4 0.290 Premium I     VS2      62.4    58   334  4.2   4.23  2.63
    ##  5             5 0.31  Good    J     SI2      63.3    58   335  4.34  4.35  2.75
    ##  6             6 0.24  Very G~ J     VVS2     62.8    57   336  3.94  3.96  2.48
    ##  7             7 0.24  Very G~ I     VVS1     62.3    57   336  3.95  3.98  2.47
    ##  8             8 0.26  Very G~ H     SI1      61.9    55   337  4.07  4.11  2.53
    ##  9             9 0.22  Fair    E     VS2      65.1    61   337  3.87  3.78  2.49
    ## 10            10 0.23  Very G~ H     VS1      59.4    61   338  4     4.05  2.39
    ## # ... with 53,930 more rows
…
