…
    ## Warning: package 'purrr' was built under R version 3.6.1

    ## Warning: package 'dplyr' was built under R version 3.6.1

    ## -- Conflicts ----- tidyverse_conflicts() --
    ## x dplyr::filter() masks stats::filter()
    ## x dplyr::lag()    masks stats::lag()

Take a look at the built-in `mpg` dataset:

``` r
mpg
```

    ## # A tibble: 234 x 11
    ##    manufacturer model    displ  year   cyl trans   drv     cty   hwy fl    class
    ##    <chr>        <chr>    <dbl> <int> <int> <chr>   <chr> <int> <int> <chr> <chr>
    ##  1 audi         a4         1.8  1999     4 auto(l~ f        18    29 p     comp~
    ##  2 audi         a4         1.8  1999     4 manual~ f        21    29 p     comp~
    ##  3 audi         a4         2    2008     4 manual~ f        20    31 p     comp~
    ##  4 audi         a4         2    2008     4 auto(a~ f        21    30 p     comp~
    ##  5 audi         a4         2.8  1999     6 auto(l~ f        16    26 p     comp~
    ##  6 audi         a4         2.8  1999     6 manual~ f        18    26 p     comp~
    ##  7 audi         a4         3.1  2008     6 auto(a~ f        18    27 p     comp~
    ##  8 audi         a4 quat~   1.8  1999     4 manual~ 4        18    26 p     comp~
    ##  9 audi         a4 quat~   1.8  1999     4 auto(l~ 4        16    25 p     comp~
    ## 10 audi         a4 quat~   2    2008     4 manual~ 4        20    28 p     comp~
    ## # ... with 224 more rows
…
Just an empty plot - the other components haven’t been specified yet.

2.  How many rows are in `mpg`? How many columns?

<!-- end list -->

``` r
mpg
```

    ## # A tibble: 234 x 11
    ##    manufacturer model    displ  year   cyl trans   drv     cty   hwy fl    class
    ##    <chr>        <chr>    <dbl> <int> <int> <chr>   <chr> <int> <int> <chr> <chr>
    ##  1 audi         a4         1.8  1999     4 auto(l~ f        18    29 p     comp~
    ##  2 audi         a4         1.8  1999     4 manual~ f        21    29 p     comp~
    ##  3 audi         a4         2    2008     4 manual~ f        20    31 p     comp~
    ##  4 audi         a4         2    2008     4 auto(a~ f        21    30 p     comp~
    ##  5 audi         a4         2.8  1999     6 auto(l~ f        16    26 p     comp~
    ##  6 audi         a4         2.8  1999     6 manual~ f        18    26 p     comp~
    ##  7 audi         a4         3.1  2008     6 auto(a~ f        18    27 p     comp~
    ##  8 audi         a4 quat~   1.8  1999     4 manual~ 4        18    26 p     comp~
    ##  9 audi         a4 quat~   1.8  1999     4 auto(l~ 4        16    25 p     comp~
    ## 10 audi         a4 quat~   2    2008     4 manual~ 4        20    28 p     comp~
    ## # ... with 224 more rows
…
