…
Average delay per carrier per route:

``` r
(carrier_route_delays <- flights %>% 
  group_by(carrier, origin, dest) %>% 
  summarize(avg_arr_delay = mean(arr_delay, na.rm = T)) %>% 
  arrange(desc(avg_arr_delay)) %>% 
  ungroup() %>% 
  left_join(airlines, by = "carrier") %>% 
  select(name, everything(), -carrier))
```

    ## # A tibble: 439 x 4
    ##    name                     origin dest  avg_arr_delay
    ##    <chr>                    <chr>  <chr>         <dbl>
    ##  1 ExpressJet Airlines Inc. JFK    ATL           128  
    ##  2 ExpressJet Airlines Inc. LGA    XNA           119  
    ##  3 United Air Lines Inc.    EWR    STL           110  
    ##  4 SkyWest Airlines Inc.    LGA    ORD           107  
    ##  5 Endeavor Air Inc.        LGA    MSP           100  
    ##  6 ExpressJet Airlines Inc. LGA    MSY            72.5
    ##  7 SkyWest Airlines Inc.    EWR    DTW            68.5
    ##  8 ExpressJet Airlines Inc. LGA    ATL            63  
    ##  9 United Air Lines Inc.    EWR    RDU            56  
    ## 10 ExpressJet Airlines Inc. EWR    CAE            44.6
    ## # ... with 429 more rows

I’m not sure how to parse this in a useful manner, with so many
combinations.

My idea was to list the rows with the greatest average delay for each
route:

``` r
carrier_route_delays %>% 
  group_by(origin, dest) %>% 
  top_n(1, avg_arr_delay) %>% 
  arrange(origin, dest)
```

    ## # A tibble: 223 x 4
    ## # Groups:   origin, dest [223]
    ##    name                     origin dest  avg_arr_delay
    ##    <chr>                    <chr>  <chr>         <dbl>
    ##  1 ExpressJet Airlines Inc. EWR    ALB           14.4 
    ##  2 United Air Lines Inc.    EWR    ANC           -2.5 
    ##  3 ExpressJet Airlines Inc. EWR    ATL           19.5 
    ##  4 United Air Lines Inc.    EWR    AUS            4.28
    ##  5 ExpressJet Airlines Inc. EWR    AVL            8.80
    ##  6 United Air Lines Inc.    EWR    BDL           22.6 
    ##  7 ExpressJet Airlines Inc. EWR    BNA           17.7 
    ##  8 JetBlue Airways          EWR    BOS            6.87
    ##  9 United Air Lines Inc.    EWR    BQN           10.9 
    ## 10 ExpressJet Airlines Inc. EWR    BTV           12.2 
    ## # ... with 213 more rows
…
> 2.  Which plane (`tailnum`) has the worst on-time record?

Based on mean arr\_delay:

``` r
flights %>% 
  group_by(tailnum) %>% 
  summarize(mean_arr_delay = mean(arr_delay, na.rm = T)) %>% 
  arrange(desc(mean_arr_delay))
```

    ## # A tibble: 4,044 x 2
    ##    tailnum mean_arr_delay
    ##    <chr>            <dbl>
    ##  1 N844MH            320 
    ##  2 N911DA            294 
    ##  3 N922EV            276 
    ##  4 N587NW            264 
    ##  5 N851NW            219 
    ##  6 N928DN            201 
    ##  7 N7715E            188 
    ##  8 N654UA            185 
    ##  9 N665MQ            175.
    ## 10 N427SW            157 
    ## # ... with 4,034 more rows
…
Assuming a “flight” is one observation (ie. one row):

``` r
flights %>% 
  filter(arr_delay > 0) %>% 
  group_by(dest) %>% 
  mutate(total_delay = sum(arr_delay),
         prop_delay = arr_delay/total_delay) %>% 
  arrange(dest, desc(prop_delay))
```

    ## # A tibble: 133,004 x 21
    ## # Groups:   dest [103]
    ##     year month   day dep_time sched_dep_time dep_delay arr_time sched_arr_time
    ##    <int> <int> <int>    <int>          <int>     <dbl>    <int>          <int>
    ##  1  2013     7    22     2145           2007        98      132           2259
    ##  2  2013    12    14     2223           2001       142      133           2304
    ##  3  2013    10    15     2146           2001       105      106           2248
    ##  4  2013     7    23     2206           2007       119      116           2259
    ##  5  2013    12    17     2220           2001       139      120           2304
    ##  6  2013     7    10     2025           2007        18      105           2259
    ##  7  2013     7    30     2212           2007       125       57           2259
    ##  8  2013     7    28     2038           2007        31       56           2259
    ##  9  2013    12     8     2049           2001        48       58           2304
    ## 10  2013     9     2     2212           2007       125       48           2259
    ## # ... with 132,994 more rows, and 13 more variables: arr_delay <dbl>,
    ## #   carrier <chr>, flight <int>, tailnum <chr>, origin <chr>, dest <chr>,
    ## #   air_time <dbl>, distance <dbl>, hour <dbl>, minute <dbl>, time_hour <dttm>,
    ## #   total_delay <dbl>, prop_delay <dbl>
…
``` r
flights %>% 
  group_by(origin, dest) %>% 
  mutate(shortest_air_time = min(air_time, na.rm = T),
         air_time_delay = air_time - shortest_air_time,
         air_time_delay_percent = (air_time_delay / shortest_air_time) * 100) %>% 
  arrange(desc(air_time_delay_percent))
```

    ## Warning in min(air_time, na.rm = T): no non-missing arguments to min; returning
    ## Inf

    ## # A tibble: 336,776 x 22
    ## # Groups:   origin, dest [224]
    ##     year month   day dep_time sched_dep_time dep_delay arr_time sched_arr_time
    ##    <int> <int> <int>    <int>          <int>     <dbl>    <int>          <int>
    ##  1  2013     6    17     1652           1700        -8     1856           1815
    ##  2  2013     6    10     1356           1300        56     1646           1414
    ##  3  2013     6    29      755            800        -5     1035            909
    ##  4  2013     6    24     1932           1920        12     2228           2047
    ##  5  2013     7    23     1617           1605        12     1833           1740
    ##  6  2013     3    12     1607           1500        67     1803           1608
    ##  7  2013     1    21     1851           1900        -9     2034           2012
    ##  8  2013     6    10     1429           1400        29     1650           1512
    ##  9  2013     7    23     1200           1200         0     1428           1317
    ## 10  2013     5    21     1709           1700         9     1937           1819
    ## # ... with 336,766 more rows, and 14 more variables: arr_delay <dbl>,
    ## #   carrier <chr>, flight <int>, tailnum <chr>, origin <chr>, dest <chr>,
    ## #   air_time <dbl>, distance <dbl>, hour <dbl>, minute <dbl>, time_hour <dttm>,
    ## #   shortest_air_time <dbl>, air_time_delay <dbl>, air_time_delay_percent <dbl>
…
Then filter for `flight_counter == 0`, which gives you all the rows
where dep\_delay was 60 or less, then count the rows.

``` r
flights %>%
  select(tailnum, month, day, dep_time, dep_delay) %>% 
  filter(!is.na(dep_delay)) %>% 
  arrange(tailnum, month, day, dep_time) %>% 
  group_by(tailnum) %>% 
  mutate(flight_counter = cumsum(dep_delay > 60)) %>% 
  filter(flight_counter == 0) %>% 
  summarise(n_flights = n())
```

    ## # A tibble: 3,803 x 2
    ##    tailnum n_flights
    ##    <chr>       <int>
    ##  1 N0EGMQ         53
    ##  2 N10156          9
    ##  3 N102UW         25
    ##  4 N103US         46
    ##  5 N104UW          3
    ##  6 N105UW         22
    ##  7 N107US         20
    ##  8 N108UW         36
    ##  9 N109UW         48
    ## 10 N110UW         15
    ## # ... with 3,793 more rows
