…
### Exercises

> 1.  What does it mean for a flight to have a missing tailnum? What do
>     the tail numbers that don’t have a matching record in planes have
>     in common? (Hint: one variable explains \~90% of the problems.)

Flights that don’t have `tailnum` appear to be ones that were canceled:

``` r
flights %>% 
  filter(is.na(tailnum))
```

    ## # A tibble: 2,512 x 19
    ##     year month   day dep_time sched_dep_time dep_delay arr_time sched_arr_time
    ##    <int> <int> <int>    <int>          <int>     <dbl>    <int>          <int>
    ##  1  2013     1     2       NA           1545        NA       NA           1910
    ##  2  2013     1     2       NA           1601        NA       NA           1735
    ##  3  2013     1     3       NA            857        NA       NA           1209
    ##  4  2013     1     3       NA            645        NA       NA            952
    ##  5  2013     1     4       NA            845        NA       NA           1015
    ##  6  2013     1     4       NA           1830        NA       NA           2044
    ##  7  2013     1     5       NA            840        NA       NA           1001
    ##  8  2013     1     7       NA            820        NA       NA            958
    ##  9  2013     1     8       NA           1645        NA       NA           1838
    ## 10  2013     1     9       NA            755        NA       NA           1012
    ## # ... with 2,502 more rows, and 11 more variables: arr_delay <dbl>,
    ## #   carrier <chr>, flight <int>, tailnum <chr>, origin <chr>, dest <chr>,
    ## #   air_time <dbl>, distance <dbl>, hour <dbl>, minute <dbl>, time_hour <dttm>
…
    ## `summarise()` ungrouping output (override with `.groups` argument)

``` r
flights %>% 
  semi_join(tailnum_100, by = "tailnum")
```

    ## # A tibble: 228,390 x 19
    ##     year month   day dep_time sched_dep_time dep_delay arr_time sched_arr_time
    ##    <int> <int> <int>    <int>          <int>     <dbl>    <int>          <int>
    ##  1  2013     1     1      517            515         2      830            819
    ##  2  2013     1     1      533            529         4      850            830
    ##  3  2013     1     1      544            545        -1     1004           1022
    ##  4  2013     1     1      554            558        -4      740            728
    ##  5  2013     1     1      555            600        -5      913            854
    ##  6  2013     1     1      557            600        -3      709            723
    ##  7  2013     1     1      557            600        -3      838            846
    ##  8  2013     1     1      558            600        -2      849            851
    ##  9  2013     1     1      558            600        -2      853            856
    ## 10  2013     1     1      558            600        -2      923            937
    ## # ... with 228,380 more rows, and 11 more variables: arr_delay <dbl>,
    ## #   carrier <chr>, flight <int>, tailnum <chr>, origin <chr>, dest <chr>,
    ## #   air_time <dbl>, distance <dbl>, hour <dbl>, minute <dbl>, time_hour <dttm>
…
`common` = models with \>= 10 years of data

``` r
library(fueleconomy)
```

    ## Warning: package 'fueleconomy' was built under R version 4.0.3

``` r
vehicles %>% 
  semi_join(common, by = c("make", "model"))
```

    ## # A tibble: 14,531 x 12
    ##       id make  model   year class   trans  drive     cyl displ fuel    hwy   cty
    ##    <dbl> <chr> <chr>  <dbl> <chr>   <chr>  <chr>   <dbl> <dbl> <chr> <dbl> <dbl>
    ##  1  1833 Acura Integ~  1986 Subcom~ Autom~ Front-~     4   1.6 Regu~    28    22
    ##  2  1834 Acura Integ~  1986 Subcom~ Manua~ Front-~     4   1.6 Regu~    28    23
    ##  3  3037 Acura Integ~  1987 Subcom~ Autom~ Front-~     4   1.6 Regu~    28    22
    ##  4  3038 Acura Integ~  1987 Subcom~ Manua~ Front-~     4   1.6 Regu~    28    23
    ##  5  4183 Acura Integ~  1988 Subcom~ Autom~ Front-~     4   1.6 Regu~    27    22
    ##  6  4184 Acura Integ~  1988 Subcom~ Manua~ Front-~     4   1.6 Regu~    28    23
    ##  7  5303 Acura Integ~  1989 Subcom~ Autom~ Front-~     4   1.6 Regu~    27    22
    ##  8  5304 Acura Integ~  1989 Subcom~ Manua~ Front-~     4   1.6 Regu~    28    23
    ##  9  6442 Acura Integ~  1990 Subcom~ Autom~ Front-~     4   1.8 Regu~    24    20
    ## 10  6443 Acura Integ~  1990 Subcom~ Manua~ Front-~     4   1.8 Regu~    26    21
    ## # ... with 14,521 more rows
…
The second set is airports that don’t appear in `flights`, so these are
places that did not have any flights from NYC-area airports in 2013.

``` r
anti_join(airports, flights, by = c("faa" = "dest")) %>% 
  distinct(faa)
```

    ## # A tibble: 1,357 x 1
    ##    faa  
    ##    <chr>
    ##  1 04G  
    ##  2 06A  
    ##  3 06C  
    ##  4 06N  
    ##  5 09J  
    ##  6 0A9  
    ##  7 0G6  
    ##  8 0G7  
    ##  9 0P2  
    ## 10 0S9  
    ## # ... with 1,347 more rows
…
